…
concerns <- read_excel(path = path_to_excel_file,
                       range = "K3:L54") 
```

Because `read_excel()` is a tidyverse function, it will import the
results as a tibble object (think of a “little table”), and tibbles are
very easy to work with. For instance, the results can be examined very
simply:

``` r
concerns
```

    ## # A tibble: 51 x 2
    ##    Control  MDMA
    ##      <dbl> <dbl>
    ##  1       7     2
    ##  2       4     7
    ##  3       8     7
    ##  4       8     8
    ##  5       5     8
    ##  6       4     8
    ##  7       7    10
    ##  8       6    10
    ##  9       9     5
    ## 10      10     7
    ## # … with 41 more rows
…
``` r
concerns_long <- pivot_longer(data = concerns,
                              cols = everything())
```

The output is a longer tibble containing one observation per row, and
the first column represents the group name while the second column
represents the observed value:

``` r
concerns_long
```

    ## # A tibble: 102 x 2
    ##    name    value
    ##    <chr>   <dbl>
    ##  1 Control     7
    ##  2 MDMA        2
    ##  3 Control     4
    ##  4 MDMA        7
    ##  5 Control     8
    ##  6 MDMA        7
    ##  7 Control     8
    ##  8 MDMA        8
    ##  9 Control     5
    ## 10 MDMA        8
    ## # … with 92 more rows
…
